generated/SystemTop.vcd
$date
2022-12-02T15:59+0000
$end
$version
0.2
$end
$comment

$end
$timescale 1ns  $end
$scope module SystemTop $end
 $var wire 32 # io_testerDataMemDataRead $end
 $var wire 1 8 io_testerDataMemWriteEnable $end
 $var wire 32 e io_testerDataMemDataWrite $end
 $var wire 1 j io_start $end
 $var wire 1 v io_testerDataMemEnable $end
 $var wire 1 "/ clock $end
 $var wire 16 "= io_testerDataMemAddress $end
 $var wire 1 "> dataMemory $end
 $var wire 1 "B accelerator $end
 $var wire 1 "I io_done $end
 $var wire 1 "o reset $end
  $scope module dataMemory $end
   $var wire 32 ! _GEN_11 $end
   $var wire 32 ( io_testerDataWrite $end
   $var wire 1 5 clock $end
   $var wire 1 : io_testerEnable $end
   $var wire 32 M io_dataRead $end
   $var wire 32 N io_dataWrite $end
   $var wire 1 q io_testerWriteEnable $end
   $var wire 32 s _GEN_5 $end
   $var wire 16 "* io_address $end
   $var wire 1 ". io_writeEnable $end
   $var wire 16 "H io_testerAddress $end
   $var wire 32 "M memory $end
   $var wire 32 "\ io_testerDataRead $end
    $scope module memory $end
      $scope module _T_1 $end
       $var wire 16 & addr $end
       $var wire 16 3 pipeline_addr_0 $end
       $var wire 1 < en $end
       $var wire 32 _ data $end
       $var wire 32 "$ pipeline_data_0 $end
       $var wire 1 "C pipeline_valid_0 $end
       $var wire 1 "P valid $end
       $var wire 1 "^ mask $end
       $var wire 1 "r clk $end
      $upscope $end
      $scope module _T $end
       $var wire 1 , clk $end
       $var wire 16 ") addr $end
       $var wire 1 "- en $end
       $var wire 32 "f data $end
      $upscope $end
      $scope module _T_3 $end
       $var wire 1 ; pipeline_valid_0 $end
       $var wire 1 @ en $end
       $var wire 1 A mask $end
       $var wire 16 F pipeline_addr_0 $end
       $var wire 16 l addr $end
       $var wire 1 "' clk $end
       $var wire 32 "? pipeline_data_0 $end
       $var wire 32 "O data $end
       $var wire 1 "~ valid $end
      $upscope $end
      $scope module _T_2 $end
       $var wire 1 H clk $end
       $var wire 16 O addr $end
       $var wire 32 ~ data $end
       $var wire 1 "8 en $end
      $upscope $end
    $upscope $end
  $upscope $end
  $scope module accelerator $end
   $var wire 4 " _GEN_2 $end
   $var wire 32 $ _GEN_119 $end
   $var wire 32 % _GEN_13 $end
   $var wire 16 ' _GEN_96 $end
   $var wire 16 ) _GEN_110 $end
   $var wire 32 * _GEN_28 $end
   $var wire 32 + _GEN_34 $end
   $var wire 32 - _GEN_104 $end
   $var wire 32 . _GEN_90 $end
   $var wire 32 / down $end
   $var wire 16 0 _GEN_5 $end
   $var wire 32 1 _GEN_78 $end
   $var wire 32 2 _GEN_107 $end
   $var wire 4 4 _GEN_99 $end
   $var wire 32 6 _GEN_16 $end
   $var wire 32 7 right $end
   $var wire 1 9 _GEN_84 $end
   $var wire 32 = op $end
   $var wire 32 > _GEN_72 $end
   $var wire 32 ? _GEN_66 $end
   $var wire 8 B _GEN_87 $end
   $var wire 32 C _GEN_8 $end
   $var wire 32 D _GEN_93 $end
   $var wire 4 E _GEN_51 $end
   $var wire 32 G _GEN_81 $end
   $var wire 32 I _GEN_75 $end
   $var wire 16 J _GEN_48 $end
   $var wire 32 K _GEN_33 $end
   $var wire 32 L _GEN_54 $end
   $var wire 1 P _GEN_69 $end
   $var wire 16 Q _GEN_60 $end
   $var wire 32 R _GEN_106 $end
   $var wire 32 S _GEN_57 $end
   $var wire 4 T _GEN_15 $end
   $var wire 32 U _GEN_42 $end
   $var wire 32 V _GEN_112 $end
   $var wire 32 W _GEN_36 $end
   $var wire 4 X _GEN_63 $end
   $var wire 32 Y _GEN_21 $end
   $var wire 1 Z reset $end
   $var wire 32 [ _GEN_24 $end
   $var wire 32 \ _GEN_30 $end
   $var wire 32 ] _GEN_7 $end
   $var wire 32 ^ _GEN_92 $end
   $var wire 4 ` _GEN_18 $end
   $var wire 32 a _GEN_45 $end
   $var wire 32 b _GEN_115 $end
   $var wire 32 c _GEN_121 $end
   $var wire 32 d _GEN_39 $end
   $var wire 16 f _GEN_109 $end
   $var wire 1 g _GEN_100 $end
   $var wire 32 h _GEN_118 $end
   $var wire 32 i _GEN_103 $end
   $var wire 16 k _GEN_74 $end
   $var wire 4 m _GEN_27 $end
   $var wire 16 n _GEN_95 $end
   $var wire 32 o _GEN_80 $end
   $var wire 32 p _GEN_89 $end
   $var wire 4 r _GEN_12 $end
   $var wire 4 t stateReg $end
   $var wire 16 u _GEN_1 $end
   $var wire 32 w _GEN_77 $end
   $var wire 4 x _GEN_4 $end
   $var wire 4 y _GEN_83 $end
   $var wire 1 z _T $end
   $var wire 32 { _GEN_62 $end
   $var wire 32 | _GEN_98 $end
   $var wire 32 } _GEN_56 $end
   $var wire 32 "! _GEN_38 $end
   $var wire 32 "" _GEN_50 $end
   $var wire 32 "# _GEN_86 $end
   $var wire 32 "% _GEN_44 $end
   $var wire 8 "& _GEN_59 $end
   $var wire 16 "( _GEN_71 $end
   $var wire 32 "+ _GEN_65 $end
   $var wire 16 ", y $end
   $var wire 4 "0 _GEN_32 $end
   $var wire 8 "1 _GEN_47 $end
   $var wire 32 "2 _GEN_53 $end
   $var wire 32 "3 _GEN_117 $end
   $var wire 1 "4 io_done $end
   $var wire 32 "5 _GEN_11 $end
   $var wire 32 "6 _GEN_68 $end
   $var wire 32 "7 _GEN_26 $end
   $var wire 1 "9 io_writeEnable $end
   $var wire 32 ": _GEN_35 $end
   $var wire 32 "; _GEN_41 $end
   $var wire 32 "< _GEN_111 $end
   $var wire 32 "@ _GEN_29 $end
   $var wire 32 "A left $end
   $var wire 32 "D _GEN_14 $end
   $var wire 4 "E _GEN_20 $end
   $var wire 32 "F _GEN_105 $end
   $var wire 32 "G _GEN_120 $end
   $var wire 32 "J _GEN_17 $end
   $var wire 32 "K io_dataWrite $end
   $var wire 16 "L _GEN_85 $end
   $var wire 32 "N _GEN_91 $end
   $var wire 4 "Q _GEN_6 $end
   $var wire 4 "R _GEN_23 $end
   $var wire 4 "S _GEN_0 $end
   $var wire 16 "T io_address $end
   $var wire 1 "U clock $end
   $var wire 4 "V _GEN_9 $end
   $var wire 8 "W _GEN_102 $end
   $var wire 32 "X _GEN_88 $end
   $var wire 1 "Y io_start $end
   $var wire 32 "Z io_dataRead $end
   $var wire 8 "[ _GEN_73 $end
   $var wire 32 "] _GEN_67 $end
   $var wire 32 "_ _GEN_94 $end
   $var wire 32 "` _GEN_61 $end
   $var wire 32 "a _GEN_49 $end
   $var wire 16 "b _GEN_82 $end
   $var wire 4 "c _GEN_40 $end
   $var wire 32 "d _GEN_97 $end
   $var wire 32 "e _GEN_55 $end
   $var wire 4 "g _GEN_3 $end
   $var wire 32 "h _GEN_76 $end
   $var wire 32 "i up $end
   $var wire 4 "j _GEN_113 $end
   $var wire 32 "k _GEN_79 $end
   $var wire 4 "l _GEN_70 $end
   $var wire 32 "m value $end
   $var wire 16 "n x $end
   $var wire 32 "p _GEN_37 $end
   $var wire 32 "q _GEN_43 $end
   $var wire 1 "s _GEN_58 $end
   $var wire 32 "t _GEN_22 $end
   $var wire 32 "u _GEN_64 $end
   $var wire 32 "v in $end
   $var wire 32 "w _GEN_31 $end
   $var wire 8 "x _GEN_116 $end
   $var wire 32 "y _GEN_101 $end
   $var wire 32 "z _GEN_52 $end
   $var wire 32 "{ _GEN_10 $end
   $var wire 4 "| _GEN_19 $end
   $var wire 32 "} _GEN_25 $end
  $upscope $end
$upscope $end
$enddefinitions $end
$dumpvars
b00000000000000000000000000000000 Y
b00000000000000000000000000000000 "p
b0000000000000000 "b
b0000 "c
b0000 r
b00000000000000000000000000000000 "M
0"P
b00000000000000000000000000000000 "#
b0000000000000000 "*
b00000000000000000000000000000000 "d
b00000000000000000000000000000000 "2
b0000000000000000 )
b00000000 "&
1"^
b00000000000000000000000000000000 "`
b0000000000000000 l
0g
b00000000000000000000000000000000 }
b00000000000000000000000000000000 h
b00000000000000000000000000000000 K
05
b00000000000000000000000000000000 6
0"r
b0000000000000000 "T
b0000000000000000 f
b00000000000000000000000000000000 b
b0000000000000000 Q
b00000000000000000000000000000000 w
b0000 E
b00000000000000000000000000000000 "y
b00000000 "1
b00000000000000000000000000000000 "\
b00000000000000000000000000000000 "G
b0000 "l
0z
b00000000000000000000000000000000 s
0H
b0000000000000000 0
0@
b00000000000000000000000000000000 "u
b00000000000000000000000000000000 $
b0000 `
b00000000000000000000000000000000 "X
b0000 "S
0v
0"U
b00000000 "x
0"8
b00000000000000000000000000000000 (
b0000 "0
b00000000 "[
b0000000000000000 u
b0000 T
b00000000000000000000000000000000 ?
b0000 "
b00000000000000000000000000000000 "k
b00000000000000000000000000000000 "N
b00000000000000000000000000000000 V
0"4
b00000000 "W
b00000000000000000000000000000000 e
0"C
0:
0".
b0000000000000000 "n
b00000000000000000000000000000000 |
b0000000000000000 k
b00000000000000000000000000000000 "5
b0000 "E
b00000000000000000000000000000000 "a
b00000000000000000000000000000000 i
b00000000000000000000000000000000 "D
1A
b0000000000000000 3
b00000000000000000000000000000000 /
b0000 "V
b0000000000000000 J
b00000000000000000000000000000000 "z
b00000000000000000000000000000000 "]
b00000000000000000000000000000000 "@
b00000000000000000000000000000000 "+
b0000 t
0"o
b00000000000000000000000000000000 _
b0000 "g
b00000000000000000000000000000000 "%
b00000000000000000000000000000000 -
b00000000000000000000000000000000 "v
b00000000000000000000000000000000 "<
b00000000000000000000000000000000 D
0;
b00000000000000000000000000000000 p
0Z
b00000000000000000000000000000000 [
b00000000000000000000000000000000 "6
b00000000000000000000000000000000 S
b00000000000000000000000000000000 "!
b0000000000000000 "(
0"9
b00000000000000000000000000000000 >
b00000000000000000000000000000000 !
0q
b00000000000000000000000000000000 U
b0000000000000000 '
b00000000000000000000000000000000 #
b0000 "|
b00000000000000000000000000000000 "O
b00000000000000000000000000000000 ":
b0000000000000000 ",
09
0"-
b00000000000000000000000000000000 2
0"~
b00000000000000000000000000000000 "f
0P
b0000 4
0"/
b00000000000000000000000000000000 I
0"'
b00000000000000000000000000000000 "}
b00000000000000000000000000000000 "h
b00000000000000000000000000000000 "K
b0000000000000000 "=
b0000000000000000 O
b00000000000000000000000000000000 .
b00000000000000000000000000000000 "w
b0000000000000000 n
b00000000000000000000000000000000 M
b0000 y
b00000000000000000000000000000000 d
0"B
b00000000000000000000000000000000 \
b00000000000000000000000000000000 G
b00000000000000000000000000000000 "{
b00000000000000000000000000000000 *
b00000000000000000000000000000000 {
0"Y
b00000000000000000000000000000000 "A
b00000000000000000000000000000000 ^
b0000000000000000 "H
b0000 "Q
b00000000000000000000000000000000 "$
b0000 X
0">
b00000000000000000000000000000000 ";
b00000000000000000000000000000000 C
b00000000000000000000000000000000 "Z
b0000 "j
b00000000000000000000000000000000 o
b0000000000000000 "L
0<
b00000000000000000000000000000000 =
b00000000000000000000000000000000 "q
b00000000000000000000000000000000 "i
b00000000000000000000000000000000 "?
b00000000000000000000000000000000 "7
b00000000000000000000000000000000 ""
b0000000000000000 ")
b0000000000000000 &
b00000000000000000000000000000000 7
0j
0"I
b00000000000000000000000000000000 N
08
b00000000000000000000000000000000 "m
b0000 m
b00000000 B
b00000000000000000000000000000000 "e
b00000000000000000000000000000000 "3
b00000000000000000000000000000000 "J
b00000000000000000000000000000000 R
b00000000000000000000000000000000 ~
b00000000000000000000000000000000 a
b00000000000000000000000000000000 L
b0000 x
0"s
b00000000000000000000000000000000 "F
b00000000000000000000000000000000 c
b00000000000000000000000000000000 1
b00000000000000000000000000000000 ]
b00000000000000000000000000000000 +
b00000000000000000000000000000000 "t
b00000000000000000000000000000000 "_
b0000 "R
b0000000000000000 F
b00000000000000000000000000000000 W
0,
b00000000000000000000000000000000 %
$end
#0
b0100 T
b0100 `
b0100 r
b0011 "
b0100 "Q
b00000000000000000000000110010000 V
b0100 "g
1Z
1"8
b0100 x
b0100 "V
1"o
b00000000000000000000000110010000 |
#1
1"/
15
b00000000000000000000000110010000 "X
1"U
1H
b00000000000000000000000110010000 =
b00000000000000000000000110010000 "`
b00000000000000000000000110010000 I
1"'
1"r
1,
b00000000000000000000000110010000 "a
#6
0"/
05
0"U
0H
0"r
0"'
0,
#11
1"/
15
1"U
1H
1"r
1"'
1,
#16
0"/
05
0"U
0H
0"r
0"'
0,
#21
1"/
15
1"U
1H
1"r
1"'
1,
#26
0"/
05
0"U
0H
0"r
0"'
0,
#31
1"/
15
1"U
1H
1"r
1"'
1,
#36
0"/
05
0"U
0H
0"r
0"'
0,
#41
1"/
15
1"U
1H
1"r
1"'
1,
#46
1<
1"P
1v
05
0Z
1"-
0"o
0"'
1q
0"/
18
0"U
0H
0"8
1:
0"r
0,
#51
1"/
15
1"U
1"C
1H
1"r
1"'
1,
#56
0"/
b0000000000000001 &
05
0"U
0H
b0000000000000001 ")
0"r
0"'
b0000000000000001 "H
0,
b0000000000000001 "=
#61
b0000000000000001 3
1"/
15
1"U
1H
1"r
1"'
1,
#66
0"/
b0000000000000010 &
05
0"U
0H
b0000000000000010 ")
0"r
0"'
b0000000000000010 "H
0,
b0000000000000010 "=
#71
b0000000000000010 3
1"/
15
1"U
1H
1"r
1"'
1,
#76
0"/
b0000000000000011 &
05
0"U
0H
b0000000000000011 ")
0"r
0"'
b0000000000000011 "H
0,
b0000000000000011 "=
#81
b0000000000000011 3
1"/
15
1"U
1H
1"r
1"'
1,
#86
0"/
b0000000000000100 &
05
0"U
0H
b0000000000000100 ")
0"r
0"'
b0000000000000100 "H
0,
b0000000000000100 "=
#91
b0000000000000100 3
1"/
15
1"U
1H
1"r
1"'
1,
#96
0"/
b0000000000000101 &
05
0"U
0H
b0000000000000101 ")
0"r
0"'
b0000000000000101 "H
0,
b0000000000000101 "=
#101
b0000000000000101 3
1"/
15
1"U
1H
1"r
1"'
1,
#106
0"/
b0000000000000110 &
05
0"U
0H
b0000000000000110 ")
0"r
0"'
b0000000000000110 "H
0,
b0000000000000110 "=
#111
b0000000000000110 3
1"/
15
1"U
1H
1"r
1"'
1,
#116
0"/
b0000000000000111 &
05
0"U
0H
b0000000000000111 ")
0"r
0"'
b0000000000000111 "H
0,
b0000000000000111 "=
#121
b0000000000000111 3
1"/
15
1"U
1H
1"r
1"'
1,
#126
0"/
b0000000000001000 &
05
0"U
0H
b0000000000001000 ")
0"r
0"'
b0000000000001000 "H
0,
b0000000000001000 "=
#131
b0000000000001000 3
1"/
15
1"U
1H
1"r
1"'
1,
#136
0"/
b0000000000001001 &
05
0"U
0H
b0000000000001001 ")
0"r
0"'
b0000000000001001 "H
0,
b0000000000001001 "=
#141
b0000000000001001 3
1"/
15
1"U
1H
1"r
1"'
1,
#146
0"/
b0000000000001010 &
05
0"U
0H
b0000000000001010 ")
0"r
0"'
b0000000000001010 "H
0,
b0000000000001010 "=
#151
b0000000000001010 3
1"/
15
1"U
1H
1"r
1"'
1,
#156
0"/
b0000000000001011 &
05
0"U
0H
b0000000000001011 ")
0"r
0"'
b0000000000001011 "H
0,
b0000000000001011 "=
#161
b0000000000001011 3
1"/
15
1"U
1H
1"r
1"'
1,
#166
0"/
b0000000000001100 &
05
0"U
0H
b0000000000001100 ")
0"r
0"'
b0000000000001100 "H
0,
b0000000000001100 "=
#171
b0000000000001100 3
1"/
15
1"U
1H
1"r
1"'
1,
#176
0"/
b0000000000001101 &
05
0"U
0H
b0000000000001101 ")
0"r
0"'
b0000000000001101 "H
0,
b0000000000001101 "=
#181
b0000000000001101 3
1"/
15
1"U
1H
1"r
1"'
1,
#186
0"/
b0000000000001110 &
05
0"U
0H
b0000000000001110 ")
0"r
0"'
b0000000000001110 "H
0,
b0000000000001110 "=
#191
b0000000000001110 3
1"/
15
1"U
1H
1"r
1"'
1,
#196
0"/
b0000000000001111 &
05
0"U
0H
b0000000000001111 ")
0"r
0"'
b0000000000001111 "H
0,
b0000000000001111 "=
#201
b0000000000001111 3
1"/
15
1"U
1H
1"r
1"'
1,
#206
0"/
b0000000000010000 &
05
0"U
0H
b0000000000010000 ")
0"r
0"'
b0000000000010000 "H
0,
b0000000000010000 "=
#211
b0000000000010000 3
1"/
15
1"U
1H
1"r
1"'
1,
#216
0"/
b0000000000010001 &
05
0"U
0H
b0000000000010001 ")
0"r
0"'
b0000000000010001 "H
0,
b0000000000010001 "=
#221
b0000000000010001 3
1"/
15
1"U
1H
1"r
1"'
1,
#226
0"/
b0000000000010010 &
05
0"U
0H
b0000000000010010 ")
0"r
0"'
b0000000000010010 "H
0,
b0000000000010010 "=
#231
b0000000000010010 3
1"/
15
1"U
1H
1"r
1"'
1,
#236
0"/
b0000000000010011 &
05
0"U
0H
b0000000000010011 ")
0"r
0"'
b0000000000010011 "H
0,
b0000000000010011 "=
#241
b0000000000010011 3
1"/
15
1"U
1H
1"r
1"'
1,
#246
0"/
b0000000000010100 &
05
0"U
0H
b0000000000010100 ")
0"r
0"'
b0000000000010100 "H
0,
b0000000000010100 "=
#251
b0000000000010100 3
1"/
15
1"U
1H
1"r
1"'
1,
#256
0"/
b0000000000010101 &
05
0"U
0H
b0000000000010101 ")
0"r
0"'
b0000000000010101 "H
0,
b0000000000010101 "=
#261
b0000000000010101 3
1"/
15
1"U
1H
1"r
1"'
1,
#266
0"/
b0000000000010110 &
05
0"U
0H
b0000000000010110 ")
0"r
0"'
b0000000000010110 "H
0,
b0000000000010110 "=
#271
b0000000000010110 3
1"/
15
1"U
1H
1"r
1"'
1,
#276
0"/
b0000000000010111 &
05
0"U
0H
b0000000000010111 ")
0"r
0"'
b0000000000010111 "H
0,
b0000000000010111 "=
#281
b0000000000010111 3
1"/
15
1"U
1H
1"r
1"'
1,
#286
0"/
b0000000000011000 &
05
0"U
0H
b0000000000011000 ")
0"r
0"'
b0000000000011000 "H
0,
b0000000000011000 "=
#291
b0000000000011000 3
1"/
15
1"U
1H
1"r
1"'
1,
#296
0"/
b0000000000011001 &
05
0"U
0H
b0000000000011001 ")
0"r
0"'
b0000000000011001 "H
0,
b0000000000011001 "=
#301
b0000000000011001 3
1"/
15
1"U
1H
1"r
1"'
1,
#306
0"/
b0000000000011010 &
05
0"U
0H
b0000000000011010 ")
0"r
0"'
b0000000000011010 "H
0,
b0000000000011010 "=
#311
b0000000000011010 3
1"/
15
1"U
1H
1"r
1"'
1,
#316
0"/
b0000000000011011 &
05
0"U
0H
b0000000000011011 ")
0"r
0"'
b0000000000011011 "H
0,
b0000000000011011 "=
#321
b0000000000011011 3
1"/
15
1"U
1H
1"r
1"'
1,
#326
0"/
b0000000000011100 &
05
0"U
0H
b0000000000011100 ")
0"r
0"'
b0000000000011100 "H
0,
b0000000000011100 "=
#331
b0000000000011100 3
1"/
15
1"U
1H
1"r
1"'
1,
#336
0"/
b0000000000011101 &
05
0"U
0H
b0000000000011101 ")
0"r
0"'
b0000000000011101 "H
0,
b0000000000011101 "=
#341
b0000000000011101 3
1"/
15
1"U
1H
1"r
1"'
1,
#346
0"/
b0000000000011110 &
05
0"U
0H
b0000000000011110 ")
0"r
0"'
b0000000000011110 "H
0,
b0000000000011110 "=
#351
b0000000000011110 3
1"/
15
1"U
1H
1"r
1"'
1,
#356
0"/
b0000000000011111 &
05
0"U
0H
b0000000000011111 ")
0"r
0"'
b0000000000011111 "H
0,
b0000000000011111 "=
#361
b0000000000011111 3
1"/
15
1"U
1H
1"r
1"'
1,
#366
0"/
b0000000000100000 &
05
0"U
0H
b0000000000100000 ")
0"r
0"'
b0000000000100000 "H
0,
b0000000000100000 "=
#371
b0000000000100000 3
1"/
15
1"U
1H
1"r
1"'
1,
#376
0"/
b0000000000100001 &
05
0"U
0H
b0000000000100001 ")
0"r
0"'
b0000000000100001 "H
0,
b0000000000100001 "=
#381
b0000000000100001 3
1"/
15
1"U
1H
1"r
1"'
1,
#386
0"/
b0000000000100010 &
05
0"U
0H
b0000000000100010 ")
0"r
0"'
b0000000000100010 "H
0,
b0000000000100010 "=
#391
b0000000000100010 3
1"/
15
1"U
1H
1"r
1"'
1,
#396
0"/
b0000000000100011 &
05
0"U
0H
b0000000000100011 ")
0"r
0"'
b0000000000100011 "H
0,
b0000000000100011 "=
#401
b0000000000100011 3
1"/
15
1"U
1H
1"r
1"'
1,
#406
0"/
b0000000000100100 &
05
0"U
0H
b0000000000100100 ")
0"r
0"'
b0000000000100100 "H
0,
b0000000000100100 "=
#411
b0000000000100100 3
1"/
15
1"U
1H
1"r
1"'
1,
#416
0"/
b0000000000100101 &
05
0"U
0H
b0000000000100101 ")
0"r
0"'
b0000000000100101 "H
0,
b0000000000100101 "=
#421
b0000000000100101 3
1"/
15
1"U
1H
1"r
1"'
1,
#426
0"/
b0000000000100110 &
05
0"U
0H
b0000000000100110 ")
0"r
0"'
b0000000000100110 "H
0,
b0000000000100110 "=
#431
b0000000000100110 3
1"/
15
1"U
1H
1"r
1"'
1,
#436
0"/
b0000000000100111 &
05
0"U
0H
b0000000000100111 ")
0"r
0"'
b0000000000100111 "H
0,
b0000000000100111 "=
#441
b0000000000100111 3
1"/
15
1"U
1H
1"r
1"'
1,
#446
0"/
b0000000000101000 &
05
0"U
0H
b0000000000101000 ")
0"r
0"'
b0000000000101000 "H
0,
b0000000000101000 "=
#451
b0000000000101000 3
1"/
15
1"U
1H
1"r
1"'
1,
#456
0"/
b0000000000101001 &
05
0"U
0H
b0000000000101001 ")
0"r
0"'
b0000000000101001 "H
0,
b0000000000101001 "=
#461
b0000000000101001 3
1"/
15
1"U
1H
1"r
1"'
1,
#466
0"/
b0000000000101010 &
05
0"U
0H
b0000000000101010 ")
0"r
0"'
b0000000000101010 "H
0,
b0000000000101010 "=
#471
b0000000000101010 3
1"/
15
1"U
1H
1"r
1"'
1,
#476
0"/
b0000000000101011 &
05
0"U
0H
b0000000000101011 ")
0"r
0"'
b0000000000101011 "H
0,
b0000000000101011 "=
#481
b0000000000101011 3
1"/
15
1"U
1H
1"r
1"'
1,
#486
0"/
b0000000000101100 &
05
0"U
0H
b0000000000101100 ")
0"r
0"'
b0000000000101100 "H
0,
b0000000000101100 "=
#491
b0000000000101100 3
1"/
15
1"U
1H
1"r
1"'
1,
#496
0"/
b0000000000101101 &
05
0"U
0H
b0000000000101101 ")
0"r
0"'
b0000000000101101 "H
0,
b0000000000101101 "=
#501
b0000000000101101 3
1"/
15
1"U
1H
1"r
1"'
1,
#506
0"/
b0000000000101110 &
05
0"U
0H
b0000000000101110 ")
0"r
0"'
b0000000000101110 "H
0,
b0000000000101110 "=
#511
b0000000000101110 3
1"/
15
1"U
1H
1"r
1"'
1,
#516
0"/
b0000000000101111 &
05
0"U
0H
b0000000000101111 ")
0"r
0"'
b0000000000101111 "H
0,
b0000000000101111 "=
#521
b0000000000101111 3
1"/
15
1"U
1H
1"r
1"'
1,
#526
0"/
b0000000000110000 &
05
0"U
0H
b0000000000110000 ")
0"r
0"'
b0000000000110000 "H
0,
b0000000000110000 "=
#531
b0000000000110000 3
1"/
15
1"U
1H
1"r
1"'
1,
#536
0"/
b0000000000110001 &
05
0"U
0H
b0000000000110001 ")
0"r
0"'
b0000000000110001 "H
0,
b0000000000110001 "=
#541
b0000000000110001 3
1"/
15
1"U
1H
1"r
1"'
1,
#546
0"/
b0000000000110010 &
05
0"U
0H
b0000000000110010 ")
0"r
0"'
b0000000000110010 "H
0,
b0000000000110010 "=
#551
b0000000000110010 3
1"/
15
1"U
1H
1"r
1"'
1,
#556
0"/
b0000000000110011 &
05
0"U
0H
b0000000000110011 ")
0"r
0"'
b0000000000110011 "H
0,
b0000000000110011 "=
#561
b0000000000110011 3
1"/
15
1"U
1H
1"r
1"'
1,
#566
0"/
b0000000000110100 &
05
0"U
0H
b0000000000110100 ")
0"r
0"'
b0000000000110100 "H
0,
b0000000000110100 "=
#571
b0000000000110100 3
1"/
15
1"U
1H
1"r
1"'
1,
#576
0"/
b0000000000110101 &
05
0"U
0H
b0000000000110101 ")
0"r
0"'
b0000000000110101 "H
0,
b0000000000110101 "=
#581
b0000000000110101 3
1"/
15
1"U
1H
1"r
1"'
1,
#586
0"/
b0000000000110110 &
05
0"U
0H
b0000000000110110 ")
0"r
0"'
b0000000000110110 "H
0,
b0000000000110110 "=
#591
b0000000000110110 3
1"/
15
1"U
1H
1"r
1"'
1,
#596
0"/
b0000000000110111 &
05
0"U
0H
b0000000000110111 ")
0"r
0"'
b0000000000110111 "H
0,
b0000000000110111 "=
#601
b0000000000110111 3
1"/
15
1"U
1H
1"r
1"'
1,
#606
0"/
b0000000000111000 &
05
0"U
0H
b0000000000111000 ")
0"r
0"'
b0000000000111000 "H
0,
b0000000000111000 "=
#611
b0000000000111000 3
1"/
15
1"U
1H
1"r
1"'
1,
#616
0"/
b0000000000111001 &
05
0"U
0H
b0000000000111001 ")
0"r
0"'
b0000000000111001 "H
0,
b0000000000111001 "=
#621
b0000000000111001 3
1"/
15
1"U
1H
1"r
1"'
1,
#626
0"/
b0000000000111010 &
05
0"U
0H
b0000000000111010 ")
0"r
0"'
b0000000000111010 "H
0,
b0000000000111010 "=
#631
b0000000000111010 3
1"/
15
1"U
1H
1"r
1"'
1,
#636
0"/
b0000000000111011 &
05
0"U
0H
b0000000000111011 ")
0"r
0"'
b0000000000111011 "H
0,
b0000000000111011 "=
#641
b0000000000111011 3
1"/
15
1"U
1H
1"r
1"'
1,
#646
0"/
b0000000000111100 &
05
0"U
0H
b0000000000111100 ")
0"r
0"'
b0000000000111100 "H
0,
b0000000000111100 "=
#651
b0000000000111100 3
1"/
15
1"U
1H
1"r
1"'
1,
#656
0"/
b0000000000111101 &
05
0"U
0H
b0000000000111101 ")
0"r
0"'
b0000000000111101 "H
0,
b0000000000111101 "=
#661
b0000000000111101 3
1"/
15
1"U
1H
1"r
1"'
1,
#666
0"/
b0000000000111110 &
05
0"U
0H
b0000000000111110 ")
0"r
0"'
b0000000000111110 "H
0,
b0000000000111110 "=
#671
b0000000000111110 3
1"/
15
1"U
1H
1"r
1"'
1,
#676
0"/
b0000000000111111 &
05
0"U
0H
b0000000000111111 ")
0"r
0"'
b0000000000111111 "H
0,
b0000000000111111 "=
#681
b0000000000111111 3
1"/
15
1"U
1H
1"r
1"'
1,
#686
0"/
b0000000001000000 &
05
0"U
0H
b0000000001000000 ")
0"r
0"'
b0000000001000000 "H
0,
b0000000001000000 "=
#691
b0000000001000000 3
1"/
15
1"U
1H
1"r
1"'
1,
#696
0"/
b0000000001000001 &
05
0"U
0H
b0000000001000001 ")
0"r
0"'
b0000000001000001 "H
0,
b0000000001000001 "=
#701
b0000000001000001 3
1"/
15
1"U
1H
1"r
1"'
1,
#706
0"/
b0000000001000010 &
05
0"U
0H
b0000000001000010 ")
0"r
0"'
b0000000001000010 "H
0,
b0000000001000010 "=
#711
b0000000001000010 3
1"/
15
1"U
1H
1"r
1"'
1,
#716
0"/
b0000000001000011 &
05
0"U
0H
b0000000001000011 ")
0"r
0"'
b0000000001000011 "H
0,
b0000000001000011 "=
#721
b0000000001000011 3
1"/
15
1"U
1H
1"r
1"'
1,
#726
0"/
b0000000001000100 &
05
0"U
0H
b0000000001000100 ")
0"r
0"'
b0000000001000100 "H
0,
b0000000001000100 "=
#731
b0000000001000100 3
1"/
15
1"U
1H
1"r
1"'
1,
#736
0"/
b0000000001000101 &
05
0"U
0H
b0000000001000101 ")
0"r
0"'
b0000000001000101 "H
0,
b0000000001000101 "=
#741
b0000000001000101 3
1"/
15
1"U
1H
1"r
1"'
1,
#746
0"/
b0000000001000110 &
05
0"U
0H
b0000000001000110 ")
0"r
0"'
b0000000001000110 "H
0,
b0000000001000110 "=
#751
b0000000001000110 3
1"/
15
1"U
1H
1"r
1"'
1,
#756
0"/
b0000000001000111 &
05
0"U
0H
b0000000001000111 ")
0"r
0"'
b0000000001000111 "H
0,
b0000000001000111 "=
#761
b0000000001000111 3
1"/
15
1"U
1H
1"r
1"'
1,
#766
0"/
b0000000001001000 &
05
0"U
0H
b0000000001001000 ")
0"r
0"'
b0000000001001000 "H
0,
b0000000001001000 "=
#771
b0000000001001000 3
1"/
15
1"U
1H
1"r
1"'
1,
#776
0"/
b0000000001001001 &
05
0"U
0H
b0000000001001001 ")
0"r
0"'
b0000000001001001 "H
0,
b0000000001001001 "=
#781
b0000000001001001 3
1"/
15
1"U
1H
1"r
1"'
1,
#786
0"/
b0000000001001010 &
05
0"U
0H
b0000000001001010 ")
0"r
0"'
b0000000001001010 "H
0,
b0000000001001010 "=
#791
b0000000001001010 3
1"/
15
1"U
1H
1"r
1"'
1,
#796
0"/
b0000000001001011 &
05
0"U
0H
b0000000001001011 ")
0"r
0"'
b0000000001001011 "H
0,
b0000000001001011 "=
#801
b0000000001001011 3
1"/
15
1"U
1H
1"r
1"'
1,
#806
0"/
b0000000001001100 &
05
0"U
0H
b0000000001001100 ")
0"r
0"'
b0000000001001100 "H
0,
b0000000001001100 "=
#811
b0000000001001100 3
1"/
15
1"U
1H
1"r
1"'
1,
#816
0"/
b0000000001001101 &
05
0"U
0H
b0000000001001101 ")
0"r
0"'
b0000000001001101 "H
0,
b0000000001001101 "=
#821
b0000000001001101 3
1"/
15
1"U
1H
1"r
1"'
1,
#826
0"/
b0000000001001110 &
05
0"U
0H
b0000000001001110 ")
0"r
0"'
b0000000001001110 "H
0,
b0000000001001110 "=
#831
b0000000001001110 3
1"/
15
1"U
1H
1"r
1"'
1,
#836
0"/
b0000000001001111 &
05
0"U
0H
b0000000001001111 ")
0"r
0"'
b0000000001001111 "H
0,
b0000000001001111 "=
#841
b0000000001001111 3
1"/
15
1"U
1H
1"r
1"'
1,
#846
0"/
b0000000001010000 &
05
0"U
0H
b0000000001010000 ")
0"r
0"'
b0000000001010000 "H
0,
b0000000001010000 "=
#851
b0000000001010000 3
1"/
15
1"U
1H
1"r
1"'
1,
